{
  "id": "mta",
  "title": "Chronicles of Darkness 2e",
  "description": "2nd edition of the Chronicles of Darkness system by White Wolf.",
  "version": "0.11.1",
  "authors": [
		{
			"name": "SoulCake",
			"discord": "SoulCake#7804",
			"ko-fi":"soulcake"
		}
	],
  "compatibility": {
    "minimum": "10",
    "verified": "10.286",
    "maximum": "10"
  },
  "url": "https://gitlab.com/MarlQ/mta",
  "manifest": "https://gitlab.com/MarlQ/mta/-/raw/master/system.json",
  "download": "https://gitlab.com/MarlQ/mta/-/archive/0.11.1/mta-0.11.1.zip",
  "changelog": "https://gitlab.com/MarlQ/mta/-/releases/0.11.1",
  "readme": "https://gitlab.com/MarlQ/mta/-/blob/master/README.md",
  "bugs": "https://gitlab.com/MarlQ/mta/-/issues",
  "esmodules": ["module/mta.js"],
  "styles": ["styles/default.css", "styles/override.css"],
  "packs": [
    {
      "name": "macros",
      "label": "Macros",
      "system": "mta",
      "path": "./packs/macros.db",
      "type": "Macro"
    }
  ],
  "languages": [
    {
      "lang": "en",
      "name": "English",
      "path": "lang/en.json"
    },
    {
      "lang": "fr",
      "name": "French",
      "path": "lang/fr.json"
    }
  ],
  "initiative": "1d10 + @derivedTraits.initiativeMod.final",
  "gridDistance": 1,
  "gridUnits": "m",
  "primaryTokenAttribute": "resources.health"
}
